{
  "data": [
    [
      "img/200x200.png",
      "Tiger Nixon",
      "System Architect",
      "Edinburgh",
      "@tigernixon",
      "2011/04/25",
      "$320,800"
    ],
    [
      "img/200x200.png",
      "Garrett Winters",
      "Accountant",
      "Tokyo",
      "@garretwinters",
      "2011/07/25",
      "$170,750"
    ],
    [
      "img/200x200.png",
      "Ashton Cox",
      "Junior Technical Author",
      "San Francisco",
      "@ashtoncox",
      "2009/01/12",
      "$86,000"
    ],
    [
      "img/200x200.png",
      "Cedric Kelly",
      "Javascript Developer",
      "Edinburgh",
      "@cedrickelly",
      "2012/03/29",
      "$433,060"
    ],
    [
      "img/200x200.png",
      "Airi Satou",
      "Accountant",
      "Tokyo",
      "@airisatou",
      "2008/11/28",
      "$162,700"
    ],
    [
      "img/200x200.png",
      "Brielle Williamson",
      "Integration Specialist",
      "New York",
      "@briellewilliamson",
      "2012/12/02",
      "$372,000"
    ],
    [
      "img/200x200.png",
      "Herrod Chandler",
      "Sales Assistant",
      "San Francisco",
      "@herrodchandler",
      "2012/08/06",
      "$137,500"
    ],
    [
      "img/200x200.png",
      "Rhona Davidson",
      "Integration Specialist",
      "Tokyo",
      "@rhonadavidson",
      "2010/10/14",
      "$327,900"
    ],
    [
      "img/200x200.png",
      "Colleen Hurst",
      "Javascript Developer",
      "San Francisco",
      "@collenhurst",
      "2009/09/15",
      "$205,500"
    ],
    [
      "img/200x200.png",
      "Sonya Frost",
      "Software Engineer",
      "Edinburgh",
      "@sonyafrost",
      "2008/12/13",
      "$103,600"
    ],
    [
      "img/200x200.png",
      "Jena Gaines",
      "Office Manager",
      "London",
      "@jenagaines",
      "2008/12/19",
      "$90,560"
    ],
    [
      "img/200x200.png",
      "Quinn Flynn",
      "Support Lead",
      "Edinburgh",
      "@quinnflynn",
      "2013/03/03",
      "$342,000"
    ],
    [
      "img/200x200.png",
      "Charde Marshall",
      "Regional Director",
      "San Francisco",
      "@chardemarshall",
      "2008/10/16",
      "$470,600"
    ],
    [
      "img/200x200.png",
      "Haley Kennedy",
      "Senior Marketing Designer",
      "London",
      "@haleykennedy",
      "2012/12/18",
      "$313,500"
    ]
  ]
}
