{
  "data": [
        {
        "_id": "1",
        "task": {
            "name": "Here are the smart home devices that you should get for your children on Christmas" ,
            "project_name" : "Css tips and tricks" ,
            "project_id": "12"
            },
        "asignto": {
            "name": "John Doe",
            "id": "11",
            "avatar" :"img/60x60.png"
            },
        "date": {
            "started_at": "2018/03/5",
            "end_at": "2018/04/1"
            },
        "tags": [
             "Php" ,
             "Css" ,
             "MySql" 
       ],
        "priority": "low",
        "status": "closed"
        },
        {
        "_id": "2",
        "task": {
            "name": "How to automate painful or time-consuming tasks in your development workflow" ,
            "project_name" : "20 Useful PHP Functions You Might Have Overlooked" ,
            "project_id": "8"
            },
        "asignto": {
            "name": "Frank Williams",
            "id": "4",
            "avatar" :"img/60x60.png"
            },
        "date": {
            "started_at": "2018/03/12",
            "end_at": "2018/04/10"
            },
        "tags": [
             "C++" ,
             "Qt5" ,
             "Java" 
       ],
        "priority": "high",
        "status": "open"
        },
        {
        "_id": "3",
        "task": {
            "name": "6 tools that helps you out with several tasks when it comes to web development",
            "project_name" : "Pure CSS3 animations which starts with certain timers" ,
            "project_id": "5"
            },
        "asignto": {
            "name": "Suzy Twain",
            "id": "6",
            "avatar" :"img/60x60.png"
            },
        "date": {
            "started_at": "2018/02/15",
            "end_at": "2018/03/4"
            },
        "tags": [
             "C#" 
       ],
        "priority": "middle",
        "status": "inprogress"
        },
        {
        "_id": "4",
        "task": {
            "name": "Learn a simple way to create CSS animation with a few lines of code" ,
            "project_name" : "10 showcases of problems once hard or impossible to solve with CSS alone" ,
            "project_id": "14"
            },
        "asignto": {
            "name": "Mary Dom",
            "id": "3",
            "avatar" :"img/60x60.png"
            },
        "date": {
            "started_at": "2018/01/6",
            "end_at": "2018/03/21"
            },
        "tags": [
             "Php" ,
             "Css" 
       ],
        "priority": "high",
        "status": "answered"
        },
        {
        "_id": "5",
        "task": {
            "name": "Learn a simple way to create CSS animation with a few lines of code" ,
            "project_name" : "Flexbox is a very powerful layout tool" ,
            "project_id": "16"
            },
        "asignto": {
            "name": "Anna Martin",
            "id": "1",
            "avatar" :"img/60x60.png"
            },
        "date": {
            "started_at": "2018/01/25",
            "end_at": "2018/04/1"
            },
        "tags": [
             "Angular" ,
             "Gulp" 
       ],
        "priority": "low",
        "status": "closed"
        },
        {
        "_id": "6",
        "task": {
            "name": "Here are the smart home devices that you should get for your children on Christmas" ,
            "project_name" : "Css tips and tricks" ,
            "project_id": "12"
            },
        "asignto": {
            "name": "John Doe",
            "id": "11",
            "avatar" :"img/60x60.png"
            },
        "date": {
            "started_at": "2018/03/5",
            "end_at": "2018/04/1"
            },
        "tags": [
             "Php" ,
             "Css" ,
             "MySql" 
       ],
        "priority": "low",
        "status": "closed"
        },
        {
        "_id": "7",
        "task": {
            "name": "How to automate painful or time-consuming tasks in your development workflow" ,
            "project_name" : "20 Useful PHP Functions You Might Have Overlooked" ,
            "project_id": "8"
            },
        "asignto": {
            "name": "Frank Williams",
            "id": "4",
            "avatar" :"img/60x60.png"
            },
        "date": {
            "started_at": "2018/03/12",
            "end_at": "2018/04/10"
            },
        "tags": [
             "C++" ,
             "Qt5" ,
             "Java" 
       ],
        "priority": "high",
        "status": "open"
        },
        {
        "_id": "8",
        "task": {
            "name": "6 tools that helps you out with several tasks when it comes to web development",
            "project_name" : "Pure CSS3 animations which starts with certain timers" ,
            "project_id": "5"
            },
        "asignto": {
            "name": "Suzy Twain",
            "id": "6",
            "avatar" :"img/60x60.png"
            },
        "date": {
            "started_at": "2018/02/15",
            "end_at": "2018/03/4"
            },
        "tags": [
             "C#" 
       ],
        "priority": "middle",
        "status": "inprogress"
        },
        {
        "_id": "9",
        "task": {
            "name": "Learn a simple way to create CSS animation with a few lines of code" ,
            "project_name" : "10 showcases of problems once hard or impossible to solve with CSS alone" ,
            "project_id": "14"
            },
        "asignto": {
            "name": "Mary Dom",
            "id": "3",
            "avatar" :"img/60x60.png"
            },
        "date": {
            "started_at": "2018/01/6",
            "end_at": "2018/03/21"
            },
        "tags": [
             "Php" ,
             "Css" 
       ],
        "priority": "high",
        "status": "answered"
        },
        {
        "_id": "10",
        "task": {
            "name": "Learn a simple way to create CSS animation with a few lines of code" ,
            "project_name" : "Flexbox is a very powerful layout tool" ,
            "project_id": "16"
            },
        "asignto": {
            "name": "Anna Martin",
            "id": "1",
            "avatar" :"img/60x60.png"
            },
        "date": {
            "started_at": "2018/01/25",
            "end_at": "2018/04/1"
            },
        "tags": [
             "Angular" ,
             "Gulp" 
       ],
        "priority": "low",
        "status": "closed"
        }
  ]
}
