{
  "sProcessing": "Traitement en cours...",
  "sSearch": "Rechercher&nbsp;:",
  "sLengthMenu": "Afficher _MENU_ &eacute;l&eacute;ments",
  "sInfo": "Affichage de l'&eacute;l&eacute;ment _START_ &agrave; _END_ sur _TOTAL_ &eacute;l&eacute;ments",
  "sInfoEmpty": "Affichage de l'&eacute;l&eacute;ment 0 &agrave; 0 sur 0 &eacute;l&eacute;ment",
  "sInfoFiltered": "(filtr&eacute; de _MAX_ &eacute;l&eacute;ments au total)",
  "sInfoPostFix": "",
  "sLoadingRecords": "Chargement en cours...",
  "sZeroRecords": "Aucun &eacute;l&eacute;ment &agrave; afficher",
  "sEmptyTable": "Aucune donn&eacute;e disponible dans le tableau",
  "oPaginate": {
    "sFirst": "Premier",
    "sPrevious": "Pr&eacute;c&eacute;dent",
    "sNext": "Suivant",
    "sLast": "Dernier"
  },
  "oAria": {
    "sSortAscending": ": activer pour trier la colonne par ordre croissant",
    "sSortDescending": ": activer pour trier la colonne par ordre d&eacute;croissant"
  },
  "input": {
    "placeholder": "Recherche"
  },
  "sidebar": {
    "dashboard": "Dashboard",
    "translation": "Traduction",
    "frenchdashboard": "Dashboard en Français",
    "englishdashboard": "Dashboard en Anglais",
    "germandashboard": "Dashboard en Allemand",
    "frenchcalendar": "Calendrier en Français",
    "englishcalendar": "Calendrier en Anglais",
    "germancalendar": "Calendrier en Allemand",
    "frenchtable": "Tableau en Français",
    "englishtable": "Tableau en Anglais",
    "germantable": "Tableau en Allemand",
    "messages": "Messages",
    "inbox": "Boîte de réception",
    "compose": "Composer",
    "chat": "Tchat",
    "chatroom": "Tchat Discussion",
    "tickets": "Tickets",
    "support": "Support",
    "readticket": "Lire un Ticket",
    "createticket": "Créer un Ticket",
    "tasks": "Tâches",
    "tasklist": "Liste de Tâches",
    "readtask": "Lire une Tâche",
    "newtask": "Nouvelle Tâche",
    "events": "Événements",
    "calendar": "Calendrier",
    "agenda": "Agenda",
    "listviewevents": "List View Events",
    "googlecalendar": "Google Calendar",
    "summernote": "Summernote",
    "dropzone": "Dropzone",
    "tagseditor": "Éditeur de Tags",
    "inputmask": "Input Mask",
    "datetimepicker": "Date Time Picker",
    "bootstrapslider": "Bootstrap Slider",
    "ionrangeslider": "Ion Range Slider",
    "echarts": "Echarts",
    "corporate": "Entreprise",
    "employeelist": "Liste des employés",
    "project": "Projet",
    "projectdetails": "Détails du Projet",
    "projecttasks": "Tâches du Projet",
    "projectparticipents": "Participants au Projet",
    "projectfiles": "Fichiers du Projet",
    "projectdiscussions": "Discussions sur le projet",
    "projecttickets": "Tickets du Projet",
    "projectnotes": "Notes du Projet",
    "sales": "Ventes",
    "shoppingcart": "Shopping Cart",
    "billingdetails": "Détails de la Facturation",
    "billingpayments": "Détails du paiement",
    "invoice": "Facture",
    "uielements": "Eléments Ui",
    "charts": "Graphiques",
    "barcharts": "Diagramme à Barres",
    "linecharts": "Graphiques Linéaires",
    "areacharts": "Graphiques à Zone",
    "othercharts": "Autres Graphiques",
    "tables": "Tableaux",
    "basictables": "Tableaux de Base",
    "multilangtables": "Tableaux Multi Langues",
    "columnsearchingtables": "Recherches sur les Colonnes",
    "showhidedynamicallytables": "Afficher, Masquer dynamiquement les Tableaux",
    "tabstables": "Onglets de Tableaux",
    "forms": "Formulaires",
    "formcomponents": "Composants de Formulaire",
    "formextended": "Formulaire étendu",
    "feedback": "Feedback",
    "toastr": "Toastr",
    "sweetalert": "Sweetalert",
    "maps": "Plans",
    "jqvmap": "Jqvmap",
    "googlemap": "Google Maps",
    "extrapages": "Pages Supplémentaires",
    "login": "S'identifier",
    "register": "S'enregistrer",
    "error404": "Erreurr 404",
    "underconstruction": "En construction",
    "blankpage": "Page Blanche"
  },
  "header": {
    "language": "Français",
    "newnots": "Nouvelle Notifications",
    "filesuploaded" : "Fichiers téléchargés",
    "chatbotinit" : "Chat bot initialisé",
    "serverfailed" : "Le serveur a échoué lors du chargement",
    "ticketswaiting" : "Billets en attente d'approbation",
    "newfiles": "3 Nouveaux fichiers archivés",
    "newproduct": "Nouveaux Produits ajoutés",
    "seeallnots": "Voir toutes les notifications",
    "shoppingcart": "Panier",
    "subtotal": "Sous total:",
    "freedelivery": "Frais de livraison gratuits.",
    "newcart": "Nouveau panier",
    "reddress": "Robe rouge",
    "bluedress": "Robe bleue",
    "size": "Taille",
    "color": "Couleur",
    "red": "Rouge",
    "blue": "Bleu",
    "billing": "Facturation",
    "settings": "Paramètres",
    "profile": "Profil",
    "project": "Projet",
    "inbox": "Boîte de réception",
    "chat": "Chat",
    "newaccount": "Nouveau compte",
    "logout": "Déconnexion"
  },
  "breadcrumb": {
    "home": "Accueil"
  },
  "table": {
    "delete": "Supprimer",
    "name": "Nom",
    "position": "Fonction",
    "office": "Bureau",
    "Extn": "Extn",
    "startdate": "Date d'embauche",
    "salary": "Salaire",
    "action": "Action",
    "pagetitle": "Texte traduit, Date et Nombre formatées",
    "pagesubtitle": "i18next, MomentsJs et Intl.NumberFormat",
    "tasks": "Tâches effectuées",
    "thisweek": "cette semaine"
  },
  "swal": {
  "areyousure" :"Êtes-vous sûr?",
  "youwantbeable": "Vous ne serez pas capable de revenir en arrière!",
  "yesdelete": "Oui, supprimez-le!",
  "deleted" :"Supprimé!",
  "yourclient": "Votre client a été supprimé.",
  "success": "Succès"
  },
  "dashboard": {
  "pageviews" : "Pages vues",
  "hourlystats" : "Statistiques horaires",
  "dailystats" : "Statistiques quotidiennes",
  "weeklystats" : "Statistiques hebdomadaires ",
  "monthlystats" : "Statistiques mensuelles",
  "visitors" : "Visiteurs", 
  "downtoday" : "En baisse aujourd'hui",
  "convertionrate" : "Taux de conversion",
  "todaycampaign" : "Campagne d'aujourd'hui",
  "yesterdaycampaign" : "Campagne d'hier",
  "weekcampaign" : "Campagne de cette semaine",
  "monthcampaign" : "Campagne du mois",
  "yearcampaign" : "Campagne de cette année",
  "provenance" : "Provenance",
  "allcountries": "Tous les pays",
  "" : "États-Unis",	
  "" : "Russie",
  "" : "Visiteurs",
  "chart" : "Graphique",
  "others" : "Autres",
  "device" : "Os",
  "progress" : "Progrès",
  "time" : "Temps",
  "hour" : "Heure", 
  "day" : "Jour",
  "week" : "Semaine",
  "month" : "Mois", 
  "origin" : "Origine",
  "country" : "Pays", 
  "percentage" : "Pourcentage", 
  "number" : "Nombre",
  "france" : "France",
  "germany" : "Allemagne",
  "sweden" : "Suède",
  "holland" : "Holland",
  "usa" : "USA",
  "cpuusage" : "Utilisation du cpu", 
  "stabletoday" : "Stable aujourd'hui",
  "hourlyusage" : "Utilisation horaire",
  "lastmessage" : "Derniers messages",
  "filesuploaded" : "Fichiers téléchargés",
  "chatbotinit" : "Chat bot initialisé",
  "serverfailed" : "Le serveur a échoué lors du chargement",
  "ticketswaiting" : "Billets en attente d'approbation",
  "chatrooms" : "Salles de chat",
  "bandwidth" : "Bande passante", 
  "activity" : "Activité",
  "thisweek": "cette semaine",
  "countries" : "Pays",
  "visitorstoday": "Visiteurs aujourd'hui",
  "todaycampaign" : "Campagne d'aujourd'hui",
  "yesterdaycampaign" : "Campagne d'hier",
  "thisweekcampaign" : "Campagne de cette semaine",
  "thismonthcampaign" : "Campagne de ce mois",
  "thisyearcampaign" : "Campagne de cette année",
  "lastyearcampaign" : "Campagne de l'année dernière",
  "allright" : "© 2018 - Tous droits réservés par ",
  "designby" : "Designé par: " 
  }  
}
