<svg xmlns="http://www.w3.org/2000/svg" viewBox="0 0 116 41" width="116" height="41">
	<style>
		tspan { white-space:pre }
		.shp0 { fill: #191919 } 
		.shp1 { fill: #36cfc9 } 
		.shp2 { fill: #f759ab } 
	</style>
	<g id="Layer">
		<path id="Path_1362_1_" class="shp0" d="M44.4 15.7L41.3 15.7L41.3 12.1C41.3 12 41.4 11.9 41.5 11.9L44.3 11.9L44.3 0.6C44.3 0.5 44.4 0.4 44.5 0.4L48.4 0.4L48.4 11.9L51.3 11.9L51.3 15.7L48.4 15.7L48.4 27.2L44.3 27.2L44.4 15.7L44.4 15.7Z" />
		<path id="Path_1363_1_" fill-rule="evenodd" class="shp0" d="M52.3 19.6C52.3 14.5 57.4 10.5 62.7 11.8C66.4 12.8 68.9 16.2 68.9 20L68.9 27.2L65 27.2C64.9 27.2 64.8 27.1 64.8 27.1L64.8 26C63.8 27 62.1 27.7 60.3 27.7C55.6 27.6 52.3 24.4 52.3 19.6ZM60.9 15.4C60.8 15.4 60.7 15.4 60.6 15.4C58.4 15.4 56.5 17.1 56.5 19.4C56.5 19.5 56.5 19.6 56.5 19.6C56.4 21.9 58.2 23.8 60.5 23.8C60.5 23.8 60.6 23.8 60.7 23.8C62.9 23.9 64.8 22.1 64.8 19.8C64.8 19.7 64.8 19.6 64.7 19.6C64.8 17.4 63.1 15.5 60.9 15.4Z" />
		<path id="Path_1364_1_" class="shp0" d="M72.1 2.5C72.1 1.1 73.3 0 74.7 0C76.1 0 77.2 1.1 77.2 2.5L77.2 2.5C77.2 3.9 76.1 5.1 74.7 5.1C73.3 5.1 72.1 3.9 72.1 2.5ZM72.8 11.9L76.4 11.9C76.6 11.9 76.7 12 76.7 12.2L76.7 27C76.7 27.2 76.6 27.3 76.4 27.3L72.8 27.3C72.6 27.3 72.5 27.2 72.5 27L72.5 12.2C72.6 12 72.7 11.9 72.8 11.9Z" />
		<path id="Path_1365_1_" fill-rule="evenodd" class="shp0" d="M80.1 27.4L83.6 27.4C83.8 27.4 83.9 27.5 83.9 27.7C84 29.7 85.2 31.2 87.1 31.6C89.8 32.2 92.4 30 92.4 27.2C92.4 26.7 92.4 26.3 92.4 26.3C92.4 26.2 92.3 26.1 92.2 26.2C91.3 27.1 89.6 27.7 87.8 27.7C83 27.7 79.6 24.2 79.9 19.1C80.1 15.3 83.1 12.1 87 11.7C92.4 11.1 96.4 14.5 96.4 19.7L96.4 27.4C96.4 32.2 92.6 35.4 88.1 35.4C83.3 35.4 80 32.4 80 27.6C79.9 27.5 80 27.4 80.1 27.4ZM88.4 15.4C88.3 15.4 88.2 15.4 88.1 15.4C85.9 15.4 84 17.1 84 19.4C84 19.5 84 19.6 84 19.6C83.9 21.9 85.7 23.8 88 23.8C88.1 23.8 88.1 23.8 88.1 23.8C90.3 23.9 92.2 22.1 92.2 19.8C92.2 19.7 92.2 19.6 92.2 19.6C92.3 17.4 90.6 15.5 88.4 15.4Z" />
		<path id="Path_1366_3_" fill-rule="evenodd" class="shp0" d="M98.6 19.6C98.6 15.2 102.4 11.5 106.9 11.5C111.7 11.5 115.2 14.7 115.2 19.6L115.2 27.6C115.2 27.6 108.5 27.6 106.6 27.6C101.9 27.6 98.6 24.4 98.6 19.6ZM107.2 15.4C107.1 15.4 107 15.4 106.9 15.4C104.7 15.4 102.8 17.1 102.8 19.4C102.8 19.5 102.8 19.6 102.8 19.6C102.7 21.9 104.5 23.7 106.8 23.8C106.9 23.8 106.9 23.8 107 23.8C109.2 23.8 111.1 22.1 111.1 19.8C111 19.7 111 19.6 111 19.6C111.1 17.4 109.4 15.5 107.2 15.4Z" />
		<path id="Path_1366_2_" fill-rule="evenodd" class="shp1" d="M36 19.2C36 23.6 32.2 27.2 27.7 27.2C22.9 27.2 19.4 24 19.4 19.2L19.4 11.1C19.4 11.1 26.1 11.1 28 11.1C32.8 11.2 36 14.4 36 19.2ZM27.4 23.4C27.5 23.4 27.6 23.4 27.7 23.4C29.9 23.5 31.8 21.7 31.8 19.4C31.8 19.3 31.8 19.2 31.8 19.2C31.9 16.9 30.1 15 27.8 15L27.7 15C25.5 14.9 23.6 16.7 23.6 19C23.6 19 23.6 19.1 23.6 19.2C23.5 21.4 25.2 23.3 27.4 23.4Z" />
		<path id="Path_1366_1_" fill-rule="evenodd" class="shp2" d="M7.9 11.2C9.8 11.2 16.5 11.2 16.5 11.2L16.5 19.3C16.5 24.1 13 27.3 8.2 27.3C3.8 27.3 -0.1 23.7 -0.1 19.3C0 14.4 3.2 11.2 7.9 11.2ZM12.4 19C12.4 16.8 10.5 15 8.3 15C8.2 15 8.2 15 8.2 15C5.9 15.1 4.1 16.9 4.2 19.2C4.2 19.3 4.2 19.4 4.2 19.4C4.2 21.6 6.1 23.4 8.3 23.4C8.4 23.4 8.5 23.4 8.6 23.4C10.8 23.3 12.5 21.4 12.4 19.2C12.4 19.1 12.4 19 12.4 19Z" />
	</g>
</svg>